660,900000483
660,900000484
660,900000485
660,900000486
660,900000487
660,900000488
660,900000490
660,900000489
660,900000491
660,900000492
660,900000493
660,900000494
660,900000495
660,900000496
660,144100007
660,190102002
660,190104002
660,190102003
660,190104004
660,190104003
660,190105001
660,190105003
660,190107001
560,192101002
560,192101001
560,192102002
560,192102001
560,192103001
560,192103002
560,192104001
560,192104002
560,192105001
560,192104003
560,192106001
560,192106003
560,900000422
650,193101001
650,193101002
650,193101003
650,193102001
650,193102002
650,193103001
650,193104001
650,900000039
650,193105001
650,193106001
650,193106002
650,193107001
650,193107002
650,193108001
650,190114001
650,900000354
540,191100001
540,190103001
540,190103002
540,190104001
540,190104005
540,191105001
540,191106001
540,190105002
540,194107001
540,191107001
540,191106002
600,900000516
600,900000520
600,900000525
600,900000526
600,146196003
600,146196005
600,146197001
600,146197002
600,146196008
600,146198001
600,146198002
600,146199001
600,146199002
600,146100003
600,146100004
600,146199003
600,146100006
600,146101002
600,146100005
600,146101001
600,146102001
600,146102002
600,146104001
600,146102003
600,146104002
600,146104003
600,146104004
600,146105002
600,146105003
600,146105004
600,146106001
600,146107003
600,146107001
600,146107004
600,146107002
600,146111002
600,900000414
600,146112001
600,146113003
600,146114001
600,461115002
600,146113002
530,144196009
530,144197002
530,144199002
530,144100001
530,144100003
530,144101001
530,144102002
530,144103003
530,144104001
530,900000040
530,144104004
530,144104002
530,144105001
530,144107001
530,144107002
530,900000420
530,900000459
530,900000475
530,146113004
550,144197001
550,144199001
550,144100002
550,144100004
550,144101002
550,144102001
550,144102003
550,144103004
550,144104003
550,143105003
550,143105001
550,143106001
550,900000458
550,900000462
550,900000461
550,900000476
610,147196002
610,147196004
610,147196006
610,147196007
610,147197001
610,147197002
610,147198002
610,147199001
610,147199002
610,147100002
610,147101001
610,147101002
610,147102001
610,147102002
610,147102003
610,147104001
610,724104002
610,147105001
610,724105002
610,147105003
610,147105002
610,147105004
610,147105005
610,147106001
610,147106004
610,147106005
610,147106002
610,900000395
620,151194001
620,151195001
620,151195002
620,151196001
620,151195003
620,151196002
620,151197003
620,151199001
620,151199004
620,151199003
620,151100001
620,151102002
620,151101002
620,151102003
620,151102001
620,151102005
620,151104001
620,151105002
620,151106001
620,151107001
620,151107002
620,153111001
620,153113002
620,900001210
680,151196003
680,151198001
680,151199002
680,151100002
680,151100003
680,151101001
680,151102004
680,151104002
680,151104003
680,151105001
680,151105003
680,151106002
680,888888888
680,151105004
680,151106003
680,151105005
680,153112001
680,153113001
680,531114001
680,531115003
510,141195001
510,141194005
510,141196002
510,141198002
510,141197003
510,141199005
510,141199002
510,141199004
510,141100004
510,141101001
510,141102001
510,141103001
510,145103002
510,724104001
510,141104001
510,141104006
510,141104005
510,724104004
510,900000033
510,141105001
510,900000063
510,141106001
510,900000071
510,900000092
510,141107003
510,900000108
510,141107001
510,141107009
510,900000300
510,141108002
510,900000303
510,900000298
510,900000368
510,141110001
510,141110010
510,146111001
510,900000393
510,900000418
510,141113005
510,141113001
510,141113002
510,141114007
510,900001209
510,141194006
510,141196001
510,141197001
510,141198003
510,141198004
510,141198006
510,141199001
510,900000003
510,141199003
510,141100005
510,141101004
510,141104009
510,900000028
510,900000029
510,141187017
510,900000060
510,900000070
510,900000115
510,900000382
510,141111004
510,141112002
510,141193004
510,900000479
510,411115002
580,141100002
580,161101001
580,161102001
580,161102002
580,900000027
580,161104001
580,161105001
580,161105004
580,161105002
580,161105005
580,141113003
580,141113006
580,411115001
1030,900000499
1030,900000500
1030,900000502
1030,900000498
1030,900000547
1030,900000549
1030,900000551
1030,900000507
1030,900000554
1030,900000555
1030,900000511
1030,900000563
1030,900000518
1030,900000521
1030,900000523
1030,900000522
1030,900000524
1030,900000527
1030,900000530
1030,900000533
1030,900000532
1030,900000568
1030,900000537
1030,900000581
1030,900000539
1030,900000583
1030,900000584
1030,900000541
1030,900000586
1030,900000573
1030,900000542
1030,900000548
1030,900000571
1030,900000579
1030,900000589
1030,900000595
1030,900000601
1030,900000609
1030,900000610
1030,900000615
1030,900000620
1030,900000619
1030,900000622
1030,900000624
1030,900000630
1030,900000544
1030,900000543
1030,900000546
1030,900000564
1030,900000545
1030,900000501
1030,900000566
1030,900000560
1030,900000504
1030,900000561
1030,900000550
1030,900000565
1030,900000505
1030,900000552
1030,900000553
1030,900000509
1030,900000558
1030,900000556
1030,900000567
1030,900000514
1030,900000515
1030,900000517
1030,900000519
1030,900000529
1030,900000531
1030,900000570
1030,900000534
1030,900000535
1030,900000569
1030,900000538
1030,900000582
1030,900000540
1030,900000587
1030,900000574
1030,900000575
1030,900000576
1030,900000577
1030,900000580
1030,900000578
1030,900000591
1030,900000592
1030,900000593
1030,900000597
1030,900000598
1030,900000602
1030,900000604
1030,900000606
1030,900000607
1030,900000611
1030,900000612
1030,900000613
1030,900000616
1030,900000617
1030,900000618
1030,900000625
1030,900000626
1030,900000627
520,900000506
520,900000513
520,900000585
520,900000590
520,900000594
520,900000600
520,900000603
520,900000605
520,900000508
520,900000512
520,900000528
520,900000536
520,900000572
520,900000596
520,900000623
520,142194001
520,142194002
520,142194003
520,142195001
520,142196001
520,142196002
520,142196003
520,141196004
520,142196005
520,141196005
520,141197002
520,142196004
520,142197002
520,142197003
520,142197004
520,142199001
520,142100001
520,141101003
520,142101001
520,141102002
520,141105002
520,141105004
520,141104007
520,141104008
520,900000059
520,141105005
520,900000064
520,900000066
520,900000072
520,900000088
520,900000091
520,141194002
520,900000101
520,900000103
520,141106003
520,141108003
520,900000377
590,145195001
590,145196001
590,145196002
590,145198001
590,145197002
590,145197003
590,145199002
590,145198003
590,145198002
590,900000004
590,145100002
590,145100004
590,145100003
590,145101001
590,900000009
590,145101002
590,145102002
590,145102003
590,145103001
590,145103003
590,145104001
590,145104002
590,145104003
590,145104004
590,145105002
590,145105003
590,145105005
590,145106001
590,145106005
590,145106003
590,145106004
590,145107001
590,145106002
590,145108001
590,146111003
590,146113001
590,146114003
590,146114004
590,461114001
640,153196001
640,153197002
640,153198001
640,153198003
640,153199002
640,153100002
640,153100003
640,153101001
640,153101003
640,153101002
640,153102002
640,153103001
640,153103005
640,153104003
640,153104004
640,153105001
640,153105002
640,153106001
640,153105003
640,153107001
640,153107002
640,153107003
640,153107004
640,153110002
640,153110001
640,900000388
640,153111002
640,900000477
640,153113303
640,153114301
640,531115001
570,153197001
570,153196002
570,153198002
570,153199001
570,153199003
570,153100001
570,900000006
570,153100004
570,153102001
570,153103002
570,153103004
570,153104001
570,153104002
570,154105001
570,154106001
570,154106003
570,154106002
570,154106004
570,888888887
570,154107001
570,153110003
570,153111003
570,153113004
570,900001208
570,531115002
570,531116001
570,900001235
880,182100001
880,181100001
880,182100002
880,182102001
880,725104001
880,900000037
880,180105001
880,180105003
880,180105002
880,180105005
880,180105007
880,180106002
880,182105001
880,182106001
880,182106002
880,180105008
880,180106005
880,180106003
880,180106006
880,182106003
880,181107001
880,180107002
880,180106008
880,180106007
880,180108001
880,180107001
880,900000390
880,152112001
880,900000419
880,152114008
880,900000633
880,900000631
880,900000634
880,900000636
880,900000640
880,900000641
880,900000642
880,900000643
880,900000645
880,900000644
880,900000646
880,900000648
880,900000647
880,900000649
880,900000650
880,900000652
880,900000653
880,900000654
880,900000657
880,900000658
880,900000638
880,900000655
880,900000656
880,900000659
880,900000632
880,900000661
880,900000660
880,900000662
880,900000663
880,900000664
880,900000665
880,900000666
880,900000667
880,900000669
880,900000670
880,900000671
630,152195001
630,152196001
630,152196002
630,152196003
630,152197001
630,152198001
630,152198003
630,152199001
630,152199003
630,152199004
630,152100001
630,152101001
630,152102006
630,152102005
630,152103001
630,152102007
630,152103005
630,152105004
630,152105002
630,152105003
630,152105005
630,152106003
630,152106001
630,152106004
630,152107001
630,152106002
630,152108001
630,152110002
630,152111001
630,152113001
630,152111002
630,152114001
630,521115001
630,521115003
670,152102001
670,152102003
670,152103002
670,152103004
670,152103003
670,152105001
670,166105001
670,166106001
670,166106002
670,166107001
670,166108001
670,152111003
670,900000031
670,521115002
670,521116002
910,900000637
910,180103001
910,180103003
910,152104001
910,152104003
910,152104002
910,163105001
910,163106001
910,163105002
910,163107002
910,163106002
910,163107001
910,900001194
910,900000651
810,171193006
810,171193008
810,171194005
810,171196006
810,171196007
810,171198004
810,171198006
810,171199003
810,171199002
810,171187001
810,171198005
810,171100001
810,171101001
810,900000021
810,171104001
810,171104002
810,171105001
810,171106004
810,171105002
810,184105002
810,171106010
810,171106009
810,171108001
810,900000351
810,900000352
810,900000371
810,900000376
810,900000404
810,900000672
810,900000673
810,900000674
810,900000676
810,900000677
810,900000678
810,900000680
810,900000681
810,900000684
810,900000686
810,900000687
810,900000688
810,900000691
810,900000693
810,900000694
810,900000696
810,900000697
810,900000699
810,900000700
810,900000701
810,900000702
810,900000704
810,900000705
810,900000706
810,900000707
810,900000709
810,900000710
810,900000711
810,900000712
810,900000713
810,900000715
810,900000716
810,900000718
810,900000719
810,900000720
810,900000723
810,900000725
810,900000726
810,900000730
810,900000731
810,900000732
810,900000733
810,900000734
810,900000736
810,900000737
810,900000739
810,900000740
810,900000741
810,900000742
810,900000747
810,900000748
810,900000749
810,900000750
810,900000751
810,900000752
840,900000689
840,171198003
840,171198007
840,174199001
840,174199004
840,174100001
840,174100002
840,174101001
840,174102001
840,174102002
840,174103001
840,174103002
840,174104001
840,174104002
840,174104003
840,174100000
840,174105001
840,174106001
840,174107001
840,900001109
830,900000679
830,900000682
830,900000683
830,900000690
830,900000692
830,171194001
830,900000695
830,900000698
830,171195009
830,171195008
830,171196003
830,900000703
830,171196004
830,171196008
830,171196011
830,900000714
830,171198002
830,171198009
830,171199005
830,900000721
830,900000722
830,171199006
830,900000724
830,900000729
830,173100001
830,171102002
830,171102003
830,171103001
830,171106001
830,900000113
830,900000380
830,900000455
820,900000685
820,171194004
820,171195010
820,171195004
820,172196001
820,900000708
820,172196002
820,172195001
820,172197002
820,172198002
820,172197001
820,172198001
820,900000007
820,172199002
820,172100001
820,172100003
820,172100002
820,900000015
820,172102001
820,172102003
820,900000735
820,171103002
820,183104001
820,183104003
820,183104005
820,900000738
820,172105001
820,183104002
820,900000743
820,172105003
820,172105002
820,900000744
820,900000746
820,172106002
820,183107001
820,183107002
820,183107003
820,900000753
820,900001238
850,175195001
850,175196001
850,175196004
850,175197001
850,175196006
850,175198002
850,175199003
850,175199002
850,175199005
850,175199004
850,175100002
850,175102001
850,175104001
850,175104003
850,175104002
850,175105002
850,175106001
850,175105001
850,175106002
850,171111003
850,900000407
850,900000403
850,900001220
860,177196002
860,177197001
860,177198001
860,177199001
860,177199002
860,177199003
860,177199004
860,177100002
860,177100001
860,900000105
860,900000104
860,177106001
870,176195002
870,176196005
870,176196007
870,176197001
870,176197002
870,176198001
870,176198003
870,176199001
870,176199002
870,176199003
870,176100002
870,176100001
870,176101001
870,175103001
870,176104002
870,176104001
870,176105001
870,176105003
870,176105002
870,176106001
870,900000110
870,176107001
870,900001112
870,900001116
870,900001129
870,900001130
870,900001198
870,900001197
870,900001231
210,111190006
210,111192002
210,111192011
210,111193004
210,111194006
210,111194017
210,111195003
210,111195008
210,111195006
210,111196012
210,111196024
210,111197003
210,111197002
210,111197009
210,111198001
210,111198007
210,111197023
210,111199015
210,111199011
210,900000001
210,111199013
210,900000005
210,111101002
210,111101008
210,111103001
210,111102004
210,111186005
210,111102008
210,111104002
210,900000036
210,111105002
210,111106005
210,111106003
210,111106001
210,111106004
210,900000378
210,900000400
210,111111034
210,111112002
210,900001108
210,900001146
210,111114024
210,111114053
210,111190004
210,111193012
210,111194012
210,111196002
210,111196004
210,111196011
210,111196022
210,111197001
210,111199010
210,111100014
210,111101001
210,111100011
210,111102001
210,111101003
210,900000010
210,900000016
210,111102005
210,900000023
210,111104003
210,111104006
210,111104005
210,900000034
210,111102007
210,111105001
210,111106009
210,900000111
210,111106002
210,111106008
210,111107001
210,900000299
210,900000374
210,111108001
210,900000402
210,900000405
210,111116001
210,111115004
220,112191002
220,112190003
220,112194001
220,112194004
220,112195003
220,112196001
220,112196005
220,112195005
220,112199005
220,112100006
220,112101001
220,112102002
220,112102001
220,900000018
220,900000022
220,900000024
220,111105003
220,111105004
220,111106006
220,900000301
220,900000468
230,113191001
230,113193003
230,113194003
230,113194004
230,113195004
230,113196002
230,113196004
230,113197004
230,113196005
230,113197006
230,113199002
230,113199005
230,113100002
230,113100001
230,113100003
230,900000013
230,113101005
230,900000011
230,113189002
230,113102001
230,113103001
230,113102002
230,900000019
230,900000020
230,900000025
230,113104002
230,113104001
230,900000032
230,113104003
230,113105001
230,113105005
230,113105003
230,113105004
230,113106001
230,113106002
230,113108001
230,900000386
230,113111001
230,900000396
230,111112001
230,111114042
230,111115001
260,113190004
260,113196001
260,113196003
260,113199001
260,113199004
260,113101006
260,113103003
260,113103004
260,113105002
260,113106003
240,114190002
240,114193004
240,114194002
240,114194005
240,114195001
240,114195004
240,114196002
240,114196003
240,114196004
240,114196005
240,114198002
240,114197001
240,114199002
240,114100001
240,114101001
240,114100002
240,114103001
240,114103003
240,114104001
240,114104003
240,114104004
240,114104002
240,114105001
240,114105002
240,114105003
240,114105004
240,114105006
240,114106004
240,114108001
240,900000370
240,900000399
240,900000401
240,900000472
240,900000474
240,900000481
240,900001215
240,114189005
240,900001240
250,115192001
250,115183001
250,115184002
250,115193002
250,115194002
250,115195001
250,115196001
250,115196104
250,115197002
250,115198002
250,115198007
250,115199001
250,115199002
250,115199003
250,115100001
250,115102001
250,115102002
250,115103001
250,115104001
250,115104002
250,115105002
250,115105001
250,115106001
250,115106003
250,115106002
250,115107002
250,115107001
250,900000478
250,111114002
250,111115002
330,900001006
330,123192005
330,900001007
330,123193005
330,123194001
330,123193007
330,123193006
330,900001008
330,123194009
330,123195001
330,123195004
330,123196002
330,900001010
330,123196006
330,123196007
330,900001011
330,123197003
330,123197004
330,123197006
330,123199001
330,123199004
330,123100002
330,123199003
330,900001013
330,123101002
330,123101001
330,900001014
330,123102001
330,900001015
330,123103001
330,123102002
330,123102004
330,123103003
330,123104001
330,123102003
330,900001017
330,123104002
330,123105003
330,123105002
330,123105001
330,123185001
330,900001020
330,123105005
330,900001021
330,123105004
330,123184006
330,123106001
330,123106002
330,123105006
330,123107001
330,900001026
330,123107002
330,123108001
330,900000367
330,123110002
330,900001029
330,123110003
330,900000392
330,900001030
330,123111001
330,900001031
330,900001032
330,123111002
330,900001033
330,900001124
330,900001201
330,900001202
330,900001206
330,231115001
330,232216001
330,900001239
320,121193003
320,900001009
320,121195003
320,122196010
320,121195006
320,900000832
320,900000836
320,122197001
320,900001012
320,122198001
320,122197002
320,122198002
320,122199001
320,900000857
320,122100002
320,122100005
320,122100003
320,122100004
320,900000873
320,122100006
320,122102001
320,900001016
320,122103001
320,122100007
320,122103003
320,122103002
320,900001018
320,121104002
320,900000035
320,122105001
320,900001019
320,900000913
320,122105002
320,122105003
320,900000083
320,900001022
320,900001023
320,900001024
320,122105004
320,122106001
320,900000944
320,900000946
320,900000947
320,900000949
320,900001025
320,900001027
320,122107001
320,900001028
320,900000982
320,121111001
320,900000998
320,900000416
320,121111003
320,900001123
320,900001122
320,900001131
320,900001225
320,900001233
350,125193002
350,125194001
350,125196004
350,125198001
350,125197001
350,125199003
350,125199001
350,125199004
350,121190003
350,125100002
350,125100001
350,125100005
350,125100003
350,125101001
350,125101002
350,125101003
350,125102001
350,125103002
350,125104004
350,125104001
350,125104005
350,125104003
350,125104008
350,125105003
350,125104009
350,125105001
350,125105002
350,125106001
350,900000409
350,900000460
350,900000465
350,900000469
350,900000470
350,900000471
350,900000482
350,900001204
350,231115003
380,125193001
380,125195002
380,125196002
380,125196003
380,125198002
380,125199002
380,120199001
380,120199002
380,120101001
380,125102002
380,125103003
380,125104006
380,120105001
380,120106001
380,900000410
380,900000417
380,900000463
380,900000466
380,900000467
380,900001107
340,124195001
340,124196001
340,124198001
340,124100001
340,124100002
340,124102001
340,124103001
340,124103002
340,124104002
340,124104001
340,124105001
340,124106001
340,124105002
340,124107001
340,124107002
340,123114001
340,124197001
310,121193008
310,121193002
310,121193005
310,121194002
310,121194006
310,121194008
310,121196003
310,121195004
310,121196002
310,121196005
310,121196011
310,121196012
310,121197004
310,121197003
310,121198002
310,121198003
310,121196013
310,121199003
310,121199005
310,121100002
310,121100004
310,121100001
310,121102001
310,121102002
310,121103002
310,121102004
310,121104001
310,121104003
310,121104005
310,121106001
310,121106004
310,900000096
310,121105002
310,121107002
310,121107001
310,121107003
310,121109001
310,121109006
310,900000366
310,900000372
310,121110005
310,121111002
310,900000389
310,121110007
310,121112001
310,121113004
310,121114006
1010,900000755
1010,900000759
1010,900000761
1010,900000765
1010,900000772
1010,900000774
1010,900000777
1010,900000787
1010,900000789
1010,900000791
1010,900000796
1010,900000797
1010,900000807
1010,900000818
1010,900000819
1010,900000820
1010,900000821
1010,900000825
1010,900000830
1010,900000839
1010,900000840
1010,900000845
1010,900000849
1010,900000851
1010,900000852
1010,900000854
1010,900000856
1010,900000862
1010,900000866
1010,900000871
1010,900000878
1010,900000879
1010,900000881
1010,900000882
1010,900000885
1010,900000886
1010,900000891
1010,900000893
1010,900000898
1010,900000900
1010,900000901
1010,900000904
1010,900000907
1010,900000909
1010,900000910
1010,900000917
1010,900000916
1010,900000922
1010,900000928
1010,900000930
1010,900000934
1010,900000935
1010,900000940
1010,900000938
1010,900000942
1010,900000945
1010,900000951
1010,900000954
1010,900000955
1010,900000957
1010,900000960
1010,900000966
1010,900000968
1010,900000969
1010,900000972
1010,900000974
1010,900000977
1010,900000979
1010,900000981
1010,900000984
1010,900000987
1010,900000988
1010,900000989
1010,900000992
1010,900000994
1010,900000999
1010,900001003
1010,900001117
1010,900001118
1010,900001119
1010,900001115
1010,900001126
1010,900001205
1010,900001212
1010,900001214
1010,900001199
1010,900001218
1010,900001230
1010,900001236
1011,888888886
1011,900000758
1011,900000762
1011,900000764
1011,900000766
1011,900000768
1011,900000769
1011,900000770
1011,900000775
1011,900000776
1011,900000778
1011,900000782
1011,900000784
1011,900000785
1011,900000786
1011,900000790
1011,900000792
1011,900000793
1011,900000795
1011,900000799
1011,900000801
1011,900000806
1011,900000809
1011,900000811
1011,900000812
1011,900000814
1011,900000817
1011,900000823
1011,900000827
1011,900000833
1011,900000838
1011,900000850
1011,900000853
1011,900000855
1011,900000858
1011,900000860
1011,900000865
1011,900000867
1011,900000869
1011,900000874
1011,900000883
1011,900000884
1011,900000888
1011,900000890
1011,900000895
1011,900000897
1011,900000911
1011,900000912
1011,900000914
1011,900000915
1011,900000918
1011,900000919
1011,900000921
1011,900000923
1011,900000927
1011,900000932
1011,900000936
1011,900000941
1011,900000948
1011,900000950
1011,900000952
1011,900000953
1011,900000958
1011,900000959
1011,900000965
1011,900000967
1011,900000971
1011,900000975
1011,900000976
1011,900000983
1011,900000986
1011,900000991
1011,900000993
1011,900000995
1011,900000997
1011,900001001
1011,900001002
1011,900001120
1011,900001128
1011,900001207
1011,900001213
1011,900001217
1011,900001223
1011,900001224
1011,900001237
1012,900000756
1012,900000757
1012,888888885
1012,900000760
1012,888888884
1012,888888883
1012,900000763
1012,900000771
1012,900000773
1012,900000779
1012,900000781
1012,900000783
1012,900000788
1012,900000794
1012,900000798
1012,900000800
1012,900000802
1012,888888882
1012,888888881
1012,900000810
1012,900000813
1012,900000815
1012,900000816
1012,900000824
1012,900000826
1012,900000828
1012,900000829
1012,900000831
1012,900000834
1012,900000837
1012,900000841
1012,900000842
1012,900000844
1012,900000847
1012,900000846
1012,900000848
1012,900000859
1012,900000861
1012,900000863
1012,900000864
1012,900000868
1012,900000870
1012,900000872
1012,900000875
1012,900000876
1012,900000877
1012,900000880
1012,900000887
1012,900000889
1012,900000892
1012,900000894
1012,900000896
1012,900000903
1012,900000905
1012,900000906
1012,900000908
1012,900000920
1012,900000925
1012,900000926
1012,900000929
1012,900000931
1012,900000937
1012,900000939
1012,900000943
1012,900000956
1012,900000961
1012,900000962
1012,900000963
1012,900000964
1012,900000970
1012,900000973
1012,900000978
1012,900000980
1012,900000985
1012,900000990
1012,900000996
1012,900001000
1012,900001004
1012,900001005
1012,900001121
1012,900001125
1012,900001127
1012,900001203
1012,900001222
1012,900001229
1012,900001232
360,126193002
360,126194002
360,126195003
360,126195002
360,126196001
360,126196004
360,126196003
360,126198001
360,126199001
360,126199002
360,126199006
360,121199002
360,126199005
360,121100003
360,126100002
360,126102001
360,126103001
360,126103002
360,126104001
360,126104002
360,126104006
360,126104003
360,126105001
360,900000065
360,126107001
360,126107002
360,900000480
360,121113007
360,900001114
360,211115001
360,900000767
360,900000780
360,900000804
360,900000822
360,900000899
360,900000902
360,900000924
360,900000933
370,126195001
370,900000808
370,126196002
370,126195005
370,900000835
370,126197002
370,126198002
370,126199003
370,126199004
370,127100001
370,126100001
370,900001071
370,126101002
370,127101002
370,126101003
370,126102002
370,900001064
370,126182002
370,900001072
370,900001073
370,126106002
370,126106001
370,900000353
410,131193004
410,131194002
410,131195005
410,131196003
410,131196002
410,131196005
410,131196006
410,131196008
410,131196011
410,131197001
410,131199004
410,131199002
410,131180001
410,131199003
410,130100001
410,131100003
410,131100005
410,231101001
410,131101002
410,131103003
410,131103005
410,131103006
410,131104003
410,131104005
410,900000038
410,131105001
410,131105002
410,900000058
410,131105004
410,131105006
410,131105005
410,131106001
410,900000095
410,900000097
410,900000098
410,900000099
410,900000112
410,131107003
410,900000383
410,131111004
410,131111005
410,900000397
410,900000415
410,131101003
410,131114002
410,900001034
410,900001035
410,900001036
410,900001037
410,900001038
410,900001039
410,900001040
410,900001041
410,900001065
410,900001043
410,900001044
410,900001050
410,900001045
410,900001047
410,900001048
410,900001066
410,900001049
410,900001046
410,900001042
410,900001052
410,900001051
410,900001054
410,900001053
410,900001055
410,900001056
410,900001058
410,900001057
410,900001059
410,900001060
410,900001061
410,900001062
410,900001063
410,900001068
410,900001069
410,900001070
410,900001227
410,311116004
420,131195004
420,131196004
420,132196009
420,132196010
420,132197001
420,132197003
420,132198001
420,132199001
420,132199002
420,132100001
420,132100002
420,132101001
420,132100003
420,132101003
420,132103001
420,131103002
420,131102004
420,131104002
420,131104004
420,900000078
420,132105002
420,132105003
420,131107001
420,132107001
420,900000302
420,900000365
420,132107002
430,133194003
430,133195001
430,133195002
430,133196001
430,133197002
430,133197003
430,133199001
430,133199002
430,133100001
430,133100002
430,133101001
430,133101002
430,133100003
430,133103002
430,133103001
430,133104001
430,133104002
430,133104003
430,133188001
430,133105001
430,133105003
430,133105002
430,133106001
430,900000081
430,133106002
430,900000106
430,900000107
430,133107001
430,133108002
430,133108001
430,900001113
470,900001067
470,137194001
470,137195001
470,137195002
470,137196001
470,137196002
470,137196003
470,137197001
470,137197002
470,137197004
470,137197003
470,137198002
470,137100001
470,137100002
470,137100003
470,137102001
470,137103001
470,137104001
470,137104002
470,137105001
470,137105002
470,900000087
470,137106001
470,137107001
470,137107002
470,900000411
470,900000421
470,131114001
470,131114003
470,900001226
470,311116002
440,900001074
440,900001075
440,900001076
440,900001077
440,900001079
440,900001080
440,900001081
440,900001078
440,900001082
440,900001083
440,134195002
440,900001084
440,134196002
440,134196001
440,900001085
440,134196004
440,134197001
440,134198001
440,134198002
440,134199002
440,134199001
440,134101001
440,900001086
440,134101003
440,134102002
440,134102001
440,134103001
440,900001087
440,900001088
440,134104001
440,134105001
440,900001089
440,900001090
440,134105004
440,134105002
440,134104002
440,134106001
440,134106002
440,900001091
440,134106003
440,134105003
440,135111003
440,135111001
440,900000375
440,135113003
460,136193001
460,136193002
460,136194002
460,136194003
460,136195002
460,136196001
460,136196002
460,136198001
460,136199002
460,136100001
460,136199004
460,136101001
460,136101002
460,136101003
460,136102001
460,136103001
460,136104004
460,136104006
460,136104005
460,136104007
460,136105003
460,136105004
460,136106001
460,136106002
460,900000051
460,135109001
460,900000369
460,136108001
460,900000381
460,135111005
460,900000464
460,135112001
460,135112002
460,135113002
460,900001196
460,351115001
460,900001228
450,900001092
450,900001093
450,900001094
450,900001095
450,900001096
450,900001097
450,900001098
450,900001099
450,900001100
450,900001101
450,135192004
450,135193001
450,900001102
450,135194001
450,900001103
450,900001104
450,135195001
450,135196001
450,135195002
450,135196003
450,135197001
450,135198001
450,135198002
450,900001105
450,135199001
450,135100002
450,135100001
450,135188002
450,135100003
450,135100005
450,135101001
450,135102001
450,135101003
450,135101002
450,135102002
450,135100004
450,135104001
450,135104002
450,135104003
450,135106001
450,135107002
450,135107001
450,135108001
450,135111004
450,900000406
450,135113004
450,135114001
450,135113001
450,351115003
850,900001243
1011,900001244
102,101104001
102,101105001
102,101105002
102,101105003
102,101106001
102,101106002
102,101106004
102,133104004
102,133107002
102,135105001
102,136104003
102,111197016
102,111198002
102,112187001
102,112199003
102,114199001
102,121194005
102,125196001
102,137188001
102,151198002
102,171195006
102,900000369
560,900001246
570,531116005
340,231115002
1012,900001247
1012,900001248
1010,900001251
210,111115003
530,901116001
410,900001252
999,99999999999
9999,999999999
870,751116001
440,351116001
580,411116027
610,411116026
330,231116001
460,351116002
310,211114001
590,461116002
640,531116004
330,231116002
310,211116002
230,131116002
330,900001253
830,900001258
310,900001259
910,520017001